<?xml version="1.0" encoding="utf-8"?>
<!-- Generator: Adobe Illustrator 19.1.0, SVG Export Plug-In . SVG Version: 6.00 Build 0)  -->
<svg version="1.1" id="Layer_1" xmlns="http://www.w3.org/2000/svg" xmlns:xlink="http://www.w3.org/1999/xlink" x="0px" y="0px"
	 viewBox="-467 269 24 24" style="enable-background:new -467 269 24 24;" xml:space="preserve">
<style type="text/css">
	.st0{fill:#FFFFFF;}
</style>
<path class="st0" d="M-462.3,269h1.4l1,3.7l0.9-3.7h1.5l-1.7,5.5v3.8h-1.4v-3.8L-462.3,269z M-455.8,271.4c-1.1,0-1.9,0.7-1.9,1.8
	v3.3c0,1.2,0.6,1.8,1.9,1.8c1,0,1.8-0.7,1.8-1.8v-3.3C-453.9,272.1-454.7,271.4-455.8,271.4z M-455.2,276.5c0,0.4-0.2,0.6-0.5,0.6
	c-0.4,0-0.6-0.3-0.6-0.6v-3.2c0-0.4,0.2-0.7,0.5-0.7c0.4,0,0.6,0.3,0.6,0.7C-455.2,273.3-455.2,276.5-455.2,276.5z M-450.5,271.4
	v5.2c-0.2,0.2-0.5,0.5-0.7,0.5c-0.3,0-0.3-0.2-0.3-0.5v-5.2h-1.3v5.7c0,0.7,0.2,1.2,0.9,1.2c0.4,0,0.9-0.2,1.5-0.9v0.8h1.3v-6.8
	H-450.5z M-448.3,285.3c-0.4,0-0.5,0.3-0.5,0.8v0.7h1.1V286C-447.8,285.6-447.9,285.3-448.3,285.3z M-453,285.3
	c-0.1,0-0.2,0.1-0.3,0.2v4.1c0.1,0.1,0.2,0.2,0.3,0.2c0.2,0.1,0.5,0.1,0.6-0.1c0.1-0.1,0.1-0.2,0.1-0.4v-3.4c0-0.2,0-0.4-0.1-0.5
	C-452.5,285.2-452.8,285.2-453,285.3z M-448.2,280.1c-2.6-0.2-11.1-0.2-13.7,0c-2.8,0.2-3.1,1.9-3.2,6.4c0,4.5,0.4,6.2,3.2,6.4
	c2.6,0.2,11.1,0.2,13.7,0c2.8-0.2,3.1-1.9,3.2-6.4C-445,282-445.4,280.3-448.2,280.1z M-460.5,290.8h-1.4v-7.5h-1.4V282h4.2v1.3
	h-1.4L-460.5,290.8L-460.5,290.8z M-455.6,290.8h-1.2v-0.7c-0.2,0.3-0.5,0.5-0.7,0.6c-0.7,0.4-1.5,0.4-1.5-1v-5.4h1.2v5
	c0,0.3,0.1,0.4,0.3,0.4c0.2,0,0.6-0.3,0.7-0.5v-4.9h1.2L-455.6,290.8L-455.6,290.8z M-451,289.5c0,0.8-0.3,1.4-1.1,1.4
	c-0.4,0-0.8-0.2-1.1-0.6v0.5h-1.2V282h1.2v2.8c0.3-0.3,0.6-0.6,1.1-0.6c0.9,0,1.2,0.7,1.2,1.6L-451,289.5L-451,289.5z M-446.5,287.7
	h-2.3v1.2c0,0.5,0,0.9,0.5,0.9c0.5,0,0.5-0.3,0.5-0.9v-0.5h1.2v0.5c0,1.3-0.5,2-1.8,2c-1.2,0-1.7-0.8-1.7-2v-2.9
	c0-1.1,0.7-1.9,1.8-1.9c1.2,0,1.7,0.7,1.7,1.9L-446.5,287.7L-446.5,287.7z"/>
</svg>
