<?xml version="1.0" encoding="utf-8"?>
<!-- Generator: Adobe Illustrator 19.1.0, SVG Export Plug-In . SVG Version: 6.00 Build 0)  -->
<svg version="1.1" id="Layer_1" xmlns="http://www.w3.org/2000/svg" xmlns:xlink="http://www.w3.org/1999/xlink" x="0px" y="0px"
	 viewBox="-262 384.9 70 72" style="enable-background:new -262 384.9 70 72;" xml:space="preserve">
<style type="text/css">
	.st0{fill:#3283B5;}
	.st1{fill:#C1494A;}
	.st2{fill:#53B598;}
	.st3{fill:#FFFFFF;}
</style>
<g>
	<path class="st0" d="M-251.8,401.9c2.8-3.7,8.2-3.6,11,0l0,0l11.6,15.7c1.5,2,1.8,4.6,0.8,6.8l-7.8,17.9c-1.8,4.2-7.1,5.5-10.6,2.6
		c-10.5-8.6-14.5-23.4-8.8-36.5C-254.6,406-253.3,403.9-251.8,401.9z"/>
	<path class="st1" d="M-230.8,451.9c-4.5-0.6-7.2-5.3-5.4-9.5l7.8-17.9c1-2.3,3.1-3.8,5.5-4.1l19.4-2.3l0,0c4.5-0.5,8.3,3.5,7.5,8
		c-0.4,2.4-1.1,4.8-2.1,7.2C-203.7,446.3-217.3,453.6-230.8,451.9z"/>
	<path class="st2" d="M-198,408.6c1.8,4.2-0.9,9-5.5,9.5l0,0l-19.4,2.3c-2.4,0.3-4.8-0.8-6.3-2.7l-11.6-15.7
		c-2.7-3.7-1.1-8.9,3.1-10.5c7.3-2.7,15.6-2.7,23.3,0.6C-206.7,395.4-201,401.4-198,408.6z"/>
</g>
<g>
	<path class="st3" d="M-226.7,455.8c-1.5,0-3-0.1-4.5-0.3c-3.3-0.4-6.1-2.3-7.8-5.2c-0.1-0.1-0.2-0.3-0.2-0.4
		c-0.3,0.1-0.5,0.2-0.8,0.2c-3.2,0.8-6.5,0-9.1-2.1c-12-9.8-16-26.6-9.8-40.8c1.3-2.8,2.6-5.1,4.2-7.2c2.1-2.7,5.1-4.2,8.5-4.2
		c0.2,0,0.4,0,0.6,0c0.1-0.2,0.1-0.5,0.2-0.7c0.9-3.2,3.3-5.8,6.4-6.9c8.5-3.1,17.7-2.9,26,0.7c8.3,3.6,14.8,10.1,18.3,18.4
		c1.2,3.1,1,6.5-0.6,9.3c-0.1,0.2-0.2,0.4-0.4,0.6c0.2,0.2,0.4,0.4,0.6,0.6c2.3,2.4,3.2,5.7,2.7,9c-0.4,2.6-1.2,5.2-2.3,8
		C-200.4,447.7-212.9,455.8-226.7,455.8z M-233.1,444.5c-0.2,0.8,0,1.5,0.4,2.2c0.5,0.9,1.4,1.5,2.4,1.6c12.3,1.6,24-5.1,28.9-16.6
		c0.9-2.2,1.5-4.2,1.9-6.3c0.2-1.1-0.1-2.1-0.8-2.8c-0.6-0.6-1.2-1.1-2.1-1c-0.2,0-0.4,0.1-0.6,0.1l-19.4,2.3
		c-1.2,0.2-2.2,0.9-2.6,2l-7.8,17.9c0,0,0,0.1-0.1,0.1l0,0.1C-233,444.3-233,444.3-233.1,444.5z M-232.2,419.9l-11.6-15.7
		c-0.1-0.1-0.1-0.1-0.2-0.2c-0.8-0.8-1.7-1-2.3-1c0,0,0,0,0,0c-1,0-2,0.5-2.7,1.3c-1.3,1.7-2.4,3.6-3.4,5.8
		c-4.9,11.2-1.7,24.5,7.8,32.3c0.8,0.7,1.8,0.9,2.8,0.7c0.4-0.1,0.8-0.3,1.2-0.5c0.5-0.3,0.8-0.8,1-1.3c0-0.1,0.1-0.1,0.1-0.2
		l7.8-17.9c0.4-1,0.1-2.4-0.1-2.7 M-226,416c0.8,0.7,1.7,1,2.7,0.9l0,0l19.4-2.3c0,0,0,0,0,0l0.2,0c0.1,0,0.2,0,0.4-0.1
		c0.7-0.3,1.3-0.8,1.7-1.5c0.5-0.9,0.6-2,0.2-3c-2.7-6.5-7.9-11.7-14.5-14.5c-6.6-2.8-13.9-3-20.6-0.5c-1,0.4-1.7,1.2-2,2.2
		c-0.3,0.9-0.1,1.8,0.3,2.5c0.1,0.2,0.2,0.2,0.2,0.4l0,0l11.5,15.5c0.1,0.1,0.1,0.2,0.2,0.2"/>
</g>
</svg>
